^C:\USERS\USER\SOURCE\REPOS\SKILLBOX15\SKILLBOX15.CPP
C:\USERS\USER\SOURCE\REPOS\SKILLBOX15\DEBUG\VC142.PDB
C:\USERS\USER\SOURCE\REPOS\SKILLBOX15\DEBUG\VC142.IDB
C:\USERS\USER\SOURCE\REPOS\SKILLBOX15\DEBUG\SKILLBOX15.OBJ
